{
  "Smtp": {
    "SmtpHost": "127.0.0.1",
    "SmtpPort": "8025",
    "ClientLogin": "null",
    "ClientPassword": "null",
    "SenderAddress": "notifications@AuditoriumReservation.local",
    "SenderName": ""
  }
}